{"data":[{"id":"a305c8aa-1c17-4d8f-8397-4594261ec039","locationId":"c9ef304c-6f28-4782-aacf-1241dd0846e1","subtotal":"120","total_amount":"129.6","tax_amount":"9.6","timestamp":"2026-02-27T20:56:28.403Z","location":{"id":"c9ef304c-6f28-4782-aacf-1241dd0846e1","latitude":42.01246326,"longitude":-78.86718664,"taxRateRegionId":"69c08ffc-b98e-48be-a1cd-05fd45ed65d5","taxRateRegion":{"id":"69c08ffc-b98e-48be-a1cd-05fd45ed65d5","name":"Cattaraugus","composite_rate":0.08,"state_rate":0.04,"county_rate":0.04,"city_rate":0,"special_rate":0,"jurisdictions":["Cattaraugus","Cattaraugus County"]}}},{"id":"11222","locationId":"9a7f113e-59c5-4c65-b8a9-600774c34e97","subtotal":"50","total_amount":"54.44","tax_amount":"4.44","timestamp":"2026-02-22T21:56:50.955Z","location":{"id":"9a7f113e-59c5-4c65-b8a9-600774c34e97","latitude":40.5728057596952,"longitude":-74.15944875285312,"taxRateRegionId":"1dbe1d48-34c5-46a6-9605-61ebac7e53f5","taxRateRegion":{"id":"1dbe1d48-34c5-46a6-9605-61ebac7e53f5","name":"Richmond","composite_rate":0.08875,"state_rate":0.04,"county_rate":0.045,"city_rate":0,"special_rate":0.00375,"jurisdictions":["Richmond","Richmond County"]}}},{"id":"11221","locationId":"c6c66482-c7dc-4e90-9b5f-750ea5b2c95d","subtotal":"120","total_amount":"130.65","tax_amount":"10.65","timestamp":"2026-02-22T21:54:26.651Z","location":{"id":"c6c66482-c7dc-4e90-9b5f-750ea5b2c95d","latitude":40.78123500768726,"longitude":-73.94417387078379,"taxRateRegionId":"468b9a72-3e5e-4cba-9509-c08a5be63d91","taxRateRegion":{"id":"468b9a72-3e5e-4cba-9509-c08a5be63d91","name":"New York","composite_rate":0.08875,"state_rate":0.04,"county_rate":0.045,"city_rate":0,"special_rate":0.00375,"jurisdictions":["New York","New York County"]}}},{"id":"11220","locationId":"44f1cba9-f42a-4835-acdd-2083ccaf66ec","subtotal":"200","total_amount":"217.75","tax_amount":"17.75","timestamp":"2026-02-22T21:48:06.653Z","location":{"id":"44f1cba9-f42a-4835-acdd-2083ccaf66ec","latitude":40.69301206148335,"longitude":-73.7450981780137,"taxRateRegionId":"7ceecc07-697c-436c-bc72-188c66864a92","taxRateRegion":{"id":"7ceecc07-697c-436c-bc72-188c66864a92","name":"Queens","composite_rate":0.08875,"state_rate":0.04,"county_rate":0.045,"city_rate":0,"special_rate":0.00375,"jurisdictions":["Queens","Queens County"]}}},{"id":"11219","locationId":"0b1c56a1-7d02-405d-8800-ab76d14317dd","subtotal":"25","total_amount":"27.22","tax_amount":"2.22","timestamp":"2026-02-22T21:37:14.244Z","location":{"id":"0b1c56a1-7d02-405d-8800-ab76d14317dd","latitude":40.75188626683277,"longitude":-73.80711325822165,"taxRateRegionId":"7ceecc07-697c-436c-bc72-188c66864a92","taxRateRegion":{"id":"7ceecc07-697c-436c-bc72-188c66864a92","name":"Queens","composite_rate":0.08875,"state_rate":0.04,"county_rate":0.045,"city_rate":0,"special_rate":0.00375,"jurisdictions":["Queens","Queens County"]}}},{"id":"11218","locationId":"9adb0902-a668-44a8-9669-643528135732","subtotal":"120","total_amount":"130.65","tax_amount":"10.65","timestamp":"2026-02-22T21:37:06.563Z","location":{"id":"9adb0902-a668-44a8-9669-643528135732","latitude":40.68863304729987,"longitude":-73.7863768557331,"taxRateRegionId":"7ceecc07-697c-436c-bc72-188c66864a92","taxRateRegion":{"id":"7ceecc07-697c-436c-bc72-188c66864a92","name":"Queens","composite_rate":0.08875,"state_rate":0.04,"county_rate":0.045,"city_rate":0,"special_rate":0.00375,"jurisdictions":["Queens","Queens County"]}}},{"id":"11217","locationId":"16cd656a-bbd8-4f1e-9561-ec5f6e2b926e","subtotal":"120","total_amount":"130.65","tax_amount":"10.65","timestamp":"2026-02-22T21:36:48.635Z","location":{"id":"16cd656a-bbd8-4f1e-9561-ec5f6e2b926e","latitude":40.8612815724243,"longitude":-73.86022844126498,"taxRateRegionId":"d70e90e3-dba3-41c9-a39a-91ff8df1cf34","taxRateRegion":{"id":"d70e90e3-dba3-41c9-a39a-91ff8df1cf34","name":"Bronx","composite_rate":0.08875,"state_rate":0.04,"county_rate":0.045,"city_rate":0,"special_rate":0.00375,"jurisdictions":["Bronx","Bronx County"]}}},{"id":"11216","locationId":"47e15c3e-4612-4373-afbc-4f41d34b7772","subtotal":"50","total_amount":"54.44","tax_amount":"4.44","timestamp":"2026-02-22T21:22:14.226Z","location":{"id":"47e15c3e-4612-4373-afbc-4f41d34b7772","latitude":40.7652414149583,"longitude":-73.96757533217485,"taxRateRegionId":"468b9a72-3e5e-4cba-9509-c08a5be63d91","taxRateRegion":{"id":"468b9a72-3e5e-4cba-9509-c08a5be63d91","name":"New York","composite_rate":0.08875,"state_rate":0.04,"county_rate":0.045,"city_rate":0,"special_rate":0.00375,"jurisdictions":["New York","New York County"]}}},{"id":"11215","locationId":"e6aad7c8-25a6-467b-87b2-e828ecbf6f9a","subtotal":"50","total_amount":"54.44","tax_amount":"4.44","timestamp":"2026-02-22T21:16:13.654Z","location":{"id":"e6aad7c8-25a6-467b-87b2-e828ecbf6f9a","latitude":40.72186228800197,"longitude":-73.82011983096862,"taxRateRegionId":"7ceecc07-697c-436c-bc72-188c66864a92","taxRateRegion":{"id":"7ceecc07-697c-436c-bc72-188c66864a92","name":"Queens","composite_rate":0.08875,"state_rate":0.04,"county_rate":0.045,"city_rate":0,"special_rate":0.00375,"jurisdictions":["Queens","Queens County"]}}},{"id":"11214","locationId":"6a0045a0-b710-459f-8383-7fb4896b3ea4","subtotal":"120","total_amount":"130.65","tax_amount":"10.65","timestamp":"2026-02-22T21:04:53.611Z","location":{"id":"6a0045a0-b710-459f-8383-7fb4896b3ea4","latitude":40.78096874361896,"longitude":-73.7953880898981,"taxRateRegionId":"7ceecc07-697c-436c-bc72-188c66864a92","taxRateRegion":{"id":"7ceecc07-697c-436c-bc72-188c66864a92","name":"Queens","composite_rate":0.08875,"state_rate":0.04,"county_rate":0.045,"city_rate":0,"special_rate":0.00375,"jurisdictions":["Queens","Queens County"]}}},{"id":"11212","locationId":"6c0bb7f9-34bd-49e8-bcd6-4078bcdc03ce","subtotal":"50","total_amount":"54","tax_amount":"4","timestamp":"2026-02-22T21:02:31.455Z","location":{"id":"6c0bb7f9-34bd-49e8-bcd6-4078bcdc03ce","latitude":43.0095340720169,"longitude":-76.15049493160755,"taxRateRegionId":"c9ceb9d3-7cd8-47b8-bb6d-e064a6c2a960","taxRateRegion":{"id":"c9ceb9d3-7cd8-47b8-bb6d-e064a6c2a960","name":"Onondaga","composite_rate":0.08,"state_rate":0.04,"county_rate":0.04,"city_rate":0,"special_rate":0,"jurisdictions":["Onondaga","Onondaga County"]}}},{"id":"11211","locationId":"a2b7326b-a6fb-42ac-977e-98f3b430811a","subtotal":"120","total_amount":"130.65","tax_amount":"10.65","timestamp":"2026-02-22T21:00:37.541Z","location":{"id":"a2b7326b-a6fb-42ac-977e-98f3b430811a","latitude":40.6759309514132,"longitude":-73.93322877958411,"taxRateRegionId":"f4ecf4d5-331f-4e6d-ae50-dd51a42ce33b","taxRateRegion":{"id":"f4ecf4d5-331f-4e6d-ae50-dd51a42ce33b","name":"Kings","composite_rate":0.08875,"state_rate":0.04,"county_rate":0.045,"city_rate":0,"special_rate":0.00375,"jurisdictions":["Kings","Kings County"]}}},{"id":"11210","locationId":"79c5e2bf-66c8-44c8-b622-5608f16f2ade","subtotal":"50","total_amount":"54.44","tax_amount":"4.44","timestamp":"2026-02-22T20:58:32.616Z","location":{"id":"79c5e2bf-66c8-44c8-b622-5608f16f2ade","latitude":40.75906587908973,"longitude":-73.98408809027863,"taxRateRegionId":"468b9a72-3e5e-4cba-9509-c08a5be63d91","taxRateRegion":{"id":"468b9a72-3e5e-4cba-9509-c08a5be63d91","name":"New York","composite_rate":0.08875,"state_rate":0.04,"county_rate":0.045,"city_rate":0,"special_rate":0.00375,"jurisdictions":["New York","New York County"]}}},{"id":"11209","locationId":"141917d4-d951-4e8f-b3d0-d03ad54d782a","subtotal":"50","total_amount":"54","tax_amount":"4","timestamp":"2026-02-22T20:55:43.627Z","location":{"id":"141917d4-d951-4e8f-b3d0-d03ad54d782a","latitude":42.97381374250376,"longitude":-74.49723340374524,"taxRateRegionId":"c1795e5a-d199-4ac3-92e0-ee75cf3e69e6","taxRateRegion":{"id":"c1795e5a-d199-4ac3-92e0-ee75cf3e69e6","name":"Montgomery","composite_rate":0.08,"state_rate":0.04,"county_rate":0.04,"city_rate":0,"special_rate":0,"jurisdictions":["Montgomery","Montgomery County"]}}},{"id":"11208","locationId":"44a0496f-5537-4cc1-984b-ae304fef09f6","subtotal":"50","total_amount":"54.44","tax_amount":"4.44","timestamp":"2026-02-22T20:53:13.683Z","location":{"id":"44a0496f-5537-4cc1-984b-ae304fef09f6","latitude":40.81735924840514,"longitude":-73.85241700796183,"taxRateRegionId":"d70e90e3-dba3-41c9-a39a-91ff8df1cf34","taxRateRegion":{"id":"d70e90e3-dba3-41c9-a39a-91ff8df1cf34","name":"Bronx","composite_rate":0.08875,"state_rate":0.04,"county_rate":0.045,"city_rate":0,"special_rate":0.00375,"jurisdictions":["Bronx","Bronx County"]}}},{"id":"11207","locationId":"76b425cb-0a11-4a14-a14e-23046b085d92","subtotal":"50","total_amount":"54.44","tax_amount":"4.44","timestamp":"2026-02-22T20:39:38.892Z","location":{"id":"76b425cb-0a11-4a14-a14e-23046b085d92","latitude":40.67479020556963,"longitude":-73.94610146863253,"taxRateRegionId":"f4ecf4d5-331f-4e6d-ae50-dd51a42ce33b","taxRateRegion":{"id":"f4ecf4d5-331f-4e6d-ae50-dd51a42ce33b","name":"Kings","composite_rate":0.08875,"state_rate":0.04,"county_rate":0.045,"city_rate":0,"special_rate":0.00375,"jurisdictions":["Kings","Kings County"]}}},{"id":"11206","locationId":"bcba5678-3768-4ebd-8171-55c122c374d0","subtotal":"45","total_amount":"48.99","tax_amount":"3.99","timestamp":"2026-02-22T20:35:38.970Z","location":{"id":"bcba5678-3768-4ebd-8171-55c122c374d0","latitude":40.69926231878166,"longitude":-73.79642375033987,"taxRateRegionId":"7ceecc07-697c-436c-bc72-188c66864a92","taxRateRegion":{"id":"7ceecc07-697c-436c-bc72-188c66864a92","name":"Queens","composite_rate":0.08875,"state_rate":0.04,"county_rate":0.045,"city_rate":0,"special_rate":0.00375,"jurisdictions":["Queens","Queens County"]}}},{"id":"11205","locationId":"fc1bb6ed-121d-4c58-a61c-b6c04276c781","subtotal":"45","total_amount":"48.99","tax_amount":"3.99","timestamp":"2026-02-22T20:29:32.566Z","location":{"id":"fc1bb6ed-121d-4c58-a61c-b6c04276c781","latitude":40.67255749681649,"longitude":-73.77456095962883,"taxRateRegionId":"7ceecc07-697c-436c-bc72-188c66864a92","taxRateRegion":{"id":"7ceecc07-697c-436c-bc72-188c66864a92","name":"Queens","composite_rate":0.08875,"state_rate":0.04,"county_rate":0.045,"city_rate":0,"special_rate":0.00375,"jurisdictions":["Queens","Queens County"]}}},{"id":"11204","locationId":"11ea5286-21b4-4055-ba33-47d7520b7aac","subtotal":"50","total_amount":"54.44","tax_amount":"4.44","timestamp":"2026-02-22T20:26:38.198Z","location":{"id":"11ea5286-21b4-4055-ba33-47d7520b7aac","latitude":40.85221408603939,"longitude":-73.87311924442596,"taxRateRegionId":"d70e90e3-dba3-41c9-a39a-91ff8df1cf34","taxRateRegion":{"id":"d70e90e3-dba3-41c9-a39a-91ff8df1cf34","name":"Bronx","composite_rate":0.08875,"state_rate":0.04,"county_rate":0.045,"city_rate":0,"special_rate":0.00375,"jurisdictions":["Bronx","Bronx County"]}}},{"id":"11203","locationId":"be35912a-a7c5-4f35-9c3b-b8cae96d0e5a","subtotal":"50","total_amount":"54.44","tax_amount":"4.44","timestamp":"2026-02-22T20:20:09.929Z","location":{"id":"be35912a-a7c5-4f35-9c3b-b8cae96d0e5a","latitude":40.77211243917014,"longitude":-73.98161207841719,"taxRateRegionId":"468b9a72-3e5e-4cba-9509-c08a5be63d91","taxRateRegion":{"id":"468b9a72-3e5e-4cba-9509-c08a5be63d91","name":"New York","composite_rate":0.08875,"state_rate":0.04,"county_rate":0.045,"city_rate":0,"special_rate":0.00375,"jurisdictions":["New York","New York County"]}}}],"pagination":{"page":1,"limit":20,"total":11089,"totalPages":555}}